Datum	Naam	Omschrijving	Factuurnummer	Open	Oorspronkelijk	Vervaldatum	Relatiecode	Plaats	Adres	Telefoon	Contactpersoon	Land	Postadres	Postcode_postadres	Plaats_postadres	Documentsoort	ID
20-12-2018	ContinYou	1 Voice B.V.	3236	120,94		03-01-2019	20001.0			0248484653							201801389.0
31-10-2018	ContinYou	1 Voice B.V.	3112	36,3		14-11-2018	20001.0			0248484653							201801461.0
06-12-2018	ContinYou	1 Voice B.V.	3229	127,05		20-12-2018	20001.0			0248484653							201801462.0
31-12-2018	ContinYou	1 Voice B.V.	3284	235,95		14-01-2019	20001.0			0248484653							201801463.0
31-12-2018	ContinYou	1 Voice B.V.	3305	-90,75		14-01-2019	20001.0			0248484653							201801464.0
31-12-2018	Connectivity Factor	1 Voice B.V.	21826622	60,5		25-01-2019	20002.0			088-9001700							201801432.0
31-12-2018	Connectivity Factor	1 Voice B.V.	21826609	-163,35		25-01-2019	20002.0			088-9001700							201801433.0
31-12-2018	Connectivity Factor	1 Voice B.V.	21826774	-855,51		25-01-2019	20002.0			088-9001700							201801434.0
31-12-2018	Connectivity Factor	1 Voice B.V.	21827684	-907,5		25-01-2019	20002.0			088-9001700							201801453.0
31-12-2018	Connectivity Factor	1 Voice B.V.	21827497	-447,7		25-01-2019	20002.0			088-9001700							201801454.0
31-12-2018	Connectivity Factor	1 Voice B.V.	21827484	-3039,04		25-01-2019	20002.0			088-9001700							201801455.0
31-12-2018	Connectivity Factor	1 Voice B.V.	21827474	-336,4		25-01-2019	20002.0			088-9001700							201801456.0
31-12-2018	Connectivity Factor	1 Voice B.V.	21827208	-75,03		25-01-2019	20002.0			088-9001700							201801457.0
31-12-2018	Connectivity Factor	1 Voice B.V.	21827120	-3982,78		25-01-2019	20002.0			088-9001700							201801458.0
31-12-2018	Connectivity Factor	1 Voice B.V.	21827018	-1101,1		25-01-2019	20002.0			088-9001700							201801459.0
31-12-2018	Connectivity Factor	1 Voice B.V.	21826931	-3134,71		25-01-2019	20002.0			088-9001700							201801460.0
18-12-2018	One Stop Mobile	1 Voice B.V.	2018029323	121,83		17-01-2019	20003.0			0315270300							201801398.0
17-12-2018	Telfort zakelijk	1 Voice B.V.	1083357099	31,15		25-12-2018	20009.0			0800-2288027							201801392.0
21-12-2018	Lydis	1 Voice B.V.	187009379	2891,62		20-01-2019	20014.0			0362020120							201801416.0
31-12-2018	Wolters Kluwer (voorheen Twinfield)	1 Voice B.V.	1250038	70,18		14-01-2019	20017.0			0334677010							201801419.0
31-12-2018	Paul Dubbers	1 Voice B.V.	39	3309,67		30-01-2019	20033.0			0334677010							201801435.0
23-12-2018	Nijol Oliemaatschappij	1 Voice B.V.	49432643	34,58		22-01-2019	20037.0			0334677010							201801399.0
18-12-2018	Govers Accountants	1 Voice B.V.	155338	2722,5		17-01-2019	20053.0			0402504599							201801414.0
19-11-2018	BusinessCom	1 Voice B.V.	18046232	274,5		19-12-2018	20063.0			0413724200							201801273.0
22-11-2018	BusinessCom	1 Voice B.V.	18046794	63,89		22-12-2018	20063.0			0413724200							201801275.0
11-12-2018	BusinessCom	1 Voice B.V.	18050231	695,44		10-01-2019	20063.0			0413724200							201801401.0
10-12-2018	BusinessCom	1 Voice B.V.	18049969	335,78		09-01-2019	20063.0			0413724200							201801402.0
14-12-2018	BusinessCom	1 Voice B.V.	18050798	223,85		13-01-2019	20063.0			0413724200							201801403.0
17-12-2018	BusinessCom	1 Voice B.V.	18051074	166,98		16-01-2019	20063.0			0413724200							201801404.0
21-12-2018	BusinessCom	1 Voice B.V.	18052127	979,81		20-01-2019	20063.0			0413724200							201801421.0
27-12-2018	BusinessCom	1 Voice B.V.	18052372	74,06		26-01-2019	20063.0			0413724200							201801422.0
21-11-2018	Xenosite	1 Voice B.V.	1839435	707,85		21-12-2018	20069.0			0511-481670							201801279.0
28-12-2018	Xenosite	1 Voice B.V.	1842806	1576,07		27-01-2019	20069.0			0511-481670							201801451.0
31-10-2018	Xenosite	1 Voice B.V.	1836290	181,5		30-11-2018	20069.0			0511-481670							201801465.0
06-12-2018	Service for ICT	1 Voice B.V.	9045	14285,97		05-01-2019	20074.0			08008880888							201801356.0
26-11-2018	Service for ICT	1 Voice B.V.	8737	33,28		26-12-2018	20074.0			08008880888							201801440.0
27-11-2018	Service for ICT	1 Voice B.V.	8740	33,28		27-12-2018	20074.0			08008880888							201801441.0
14-12-2018	Service for ICT	1 Voice B.V.	9070	-79,01		13-01-2019	20074.0			08008880888							201801442.0
26-11-2018	Service for ICT	1 Voice B.V.	18600704	-302,5		26-12-2018	20074.0			08008880888							201801443.0
30-11-2018	Service for ICT	1 Voice B.V.	18600743	2566,75		30-12-2018	20074.0			08008880888							201801448.0
29-11-2018	Service for ICT	1 Voice B.V.	8743	33,28		29-12-2018	20074.0			08008880888							201801449.0
15-07-2018	Microsoft Office	1 Voice B.V.	E070068XC2	4,2		14-08-2018	20080.0			08008880888							201800777.0
24-12-2018	HOSTNET	1 Voice B.V.	3968871	20,57		23-01-2019	20091.0			08008880888							201801395.0
02-10-2018	Shock Installaties	1 Voice B.V.	180059	729,63		31-10-2018	20094.0			08008880888							201801444.0
17-12-2018	Shock Installaties	1 Voice B.V.	180070	1318,9		16-01-2019	20094.0			08008880888							201801445.0
17-12-2018	Shock Installaties	1 Voice B.V.	180071	460,16		16-01-2019	20094.0			08008880888							201801446.0
17-12-2018	Shock Installaties	1 Voice B.V.	180072	963,46		16-01-2019	20094.0			08008880888							201801447.0
25-11-2018	Cheap Cargo.com	1 Voice B.V.	D180007978	49,01		09-12-2018	20105.0			08008880888							201801278.0
16-12-2018	Cheap Cargo.com	1 Voice B.V.	D180008572	49,01		30-12-2018	20105.0			08008880888							201801387.0
23-12-2018	Cheap Cargo.com	1 Voice B.V.	D180008791	196,02		06-01-2019	20105.0			08008880888							201801388.0
27-12-2018	Cheap Cargo.com	1 Voice B.V.	C180001349	-8,17		10-01-2019	20105.0			08008880888							201801438.0
30-12-2018	Cheap Cargo.com	1 Voice B.V.	D180008981	24,5		13-01-2019	20105.0			08008880888							201801439.0
31-12-2018	BelSimpel.nl	1 Voice B.V.	3303711749	957,11		14-01-2019	20107.0			08008880888							201801420.0
31-12-2018	T-Mobile	1 Voice B.V.	901339249394	42,64		30-01-2019	20115.0			08008880888							201801450.0
21-11-2018	KommaGo.nl	1 Voice B.V.	71040033	227,55		21-12-2018	20120.0			08008880888							201801280.0
05-12-2018	KommaGo.nl	1 Voice B.V.	71043000	272,3		04-01-2019	20120.0			08008880888							201801347.0
12-12-2018	Conrad Electronic	1 Voice B.V.	9554927830	294,94		11-01-2019	20125.0			08008880888							201801371.0
10-12-2018	Copaco Nederland B.V.	1 Voice B.V.	8631885	881,81		09-01-2019	20128.0			08008880888							201801375.0
26-10-2018	UB Center	1 Voice B.V.	2018-2143	827,74		25-11-2018	20148.0			08008880888							201801187.0
06-09-2018	Faber Nijmegen	1 Voice B.V.	2018.149	90,6		06-10-2018	20149.0			08008880888							201801132.0
22-11-2018	Faber Nijmegen	1 Voice B.V.	2018.217	65,8		22-12-2018	20149.0			08008880888							201801418.0
01-09-2018	WerkbonApp	1 Voice B.V.	823351	-43,56		01-10-2018	20151.0			08008880888							201801228.0
01-11-2018	WerkbonApp	1 Voice B.V.	824946	-52,27		01-12-2018	20151.0			08008880888							201801259.0
01-12-2018	WerkbonApp	1 Voice B.V.	825805	-52,27		31-12-2018	20151.0			08008880888							201801452.0
31-12-2018	Toon Nijmegen	1 Voice B.V.	2018.055	26,6		30-01-2019	20155.0			08008880888							201801417.0
27-12-2018	Stadsherberg	1 Voice B.V.	201800040	384,3		26-01-2019	20156.0			08008880888							201801436.0
24-12-2018	Mobile Service Centre	1 Voice B.V.	18700079	139,0		23-01-2019	20157.0			08008880888							201801437.0
