accID;companyName;FiscalYear;OMSCHRIJVING;JRR_NIV_1;JRR_NIV_2;JRR_NIV_3
02200;Auror Scalar Technology B.V.;;;;;
02250;Auror Scalar Technology B.V.;;;;;
02300;Auror Scalar Technology B.V.;;;;;
02350;Auror Scalar Technology B.V.;;;;;
09000;Auror Scalar Technology B.V.;;;;;
11001;Auror Scalar Technology B.V.;;;;;
11004;Auror Scalar Technology B.V.;;;;;
11099;Auror Scalar Technology B.V.;;;;;
13000;Auror Scalar Technology B.V.;;;;;
16000;Auror Scalar Technology B.V.;;;;;
16001;Auror Scalar Technology B.V.;;;;;
17110;Auror Scalar Technology B.V.;;;;;
18100;Auror Scalar Technology B.V.;;;;;
18400;Auror Scalar Technology B.V.;;;;;
18800;Auror Scalar Technology B.V.;;;;;
18900;Auror Scalar Technology B.V.;;;;;
18990;Auror Scalar Technology B.V.;;;;;
20000;Auror Scalar Technology B.V.;;;;;
20100;Auror Scalar Technology B.V.;;;;;
20200;Auror Scalar Technology B.V.;;;;;
20201;Auror Scalar Technology B.V.;;;;;
23000;Auror Scalar Technology B.V.;;;;;
23100;Auror Scalar Technology B.V.;;;;;
23330;Auror Scalar Technology B.V.;;;;;
24000;Auror Scalar Technology B.V.;;;;;
24010;Auror Scalar Technology B.V.;;;;;
41200;Auror Scalar Technology B.V.;;;;;
41300;Auror Scalar Technology B.V.;;;;;
41400;Auror Scalar Technology B.V.;;;;;
41990;Auror Scalar Technology B.V.;;;;;
42990;Auror Scalar Technology B.V.;;;;;
43000;Auror Scalar Technology B.V.;;;;;
44000;Auror Scalar Technology B.V.;;;;;
44990;Auror Scalar Technology B.V.;;;;;
44991;Auror Scalar Technology B.V.;;;;;
44992;Auror Scalar Technology B.V.;;;;;
45100;Auror Scalar Technology B.V.;;;;;
45200;Auror Scalar Technology B.V.;;;;;
45300;Auror Scalar Technology B.V.;;;;;
45310;Auror Scalar Technology B.V.;;;;;
45350;Auror Scalar Technology B.V.;;;;;
45500;Auror Scalar Technology B.V.;;;;;
45650;Auror Scalar Technology B.V.;;;;;
45800;Auror Scalar Technology B.V.;;;;;
45850;Auror Scalar Technology B.V.;;;;;
45900;Auror Scalar Technology B.V.;;;;;
45910;Auror Scalar Technology B.V.;;;;;
45990;Auror Scalar Technology B.V.;;;;;
45991;Auror Scalar Technology B.V.;;;;;
45992;Auror Scalar Technology B.V.;;;;;
45993;Auror Scalar Technology B.V.;;;;;
46000;Auror Scalar Technology B.V.;;;;;
46990;Auror Scalar Technology B.V.;;;;;
47000;Auror Scalar Technology B.V.;;;;;
49100;Auror Scalar Technology B.V.;;;;;
49200;Auror Scalar Technology B.V.;;;;;
60000;Auror Scalar Technology B.V.;;;;;
60001;Auror Scalar Technology B.V.;;;;;
60002;Auror Scalar Technology B.V.;;;;;
60300;Auror Scalar Technology B.V.;;;;;
60400;Auror Scalar Technology B.V.;;;;;
60999;Auror Scalar Technology B.V.;;;;;
80001;Auror Scalar Technology B.V.;;;;;
80002;Auror Scalar Technology B.V.;;;;;
80003;Auror Scalar Technology B.V.;;;;;
80999;Auror Scalar Technology B.V.;;;;;
99999;Auror Scalar Technology B.V.;;;;;
1542;1 Voice B.V.;2019;;;;
9037;1 Voice B.V.;2019;;;;
4095;1 Voice B.V.;2019;;;;
4048;1 Voice B.V.;2019;;;;
9036;1 Voice B.V.;2019;;;;
9048;1 Voice B.V.;2019;;;;
8111;1 Voice B.V.;2019;;;;
9070;1 Voice B.V.;2019;;;;
4044;1 Voice B.V.;2019;;;;
9510;1 Voice B.V.;2019;;;;
4066;1 Voice B.V.;2019;;;;
0185;1 Voice B.V.;2019;;;;
4036;1 Voice B.V.;2019;;;;
2320;1 Voice B.V.;2019;;;;
0125;1 Voice B.V.;2019;;;;
1446;1 Voice B.V.;2019;;;;
7199;1 Voice B.V.;2019;;;;
0130;1 Voice B.V.;2019;;;;
0145;1 Voice B.V.;2019;;;;
0175;1 Voice B.V.;2019;;;;
9955;1 Voice B.V.;2019;;;;
7407;1 Voice B.V.;2019;;;;
8110;1 Voice B.V.;2019;;;;
7130;1 Voice B.V.;2019;;;;
0925;1 Voice B.V.;2019;;;;
2005;1 Voice B.V.;2019;;;;
2020;1 Voice B.V.;2019;;;;
7007;1 Voice B.V.;2019;;;;
4034;1 Voice B.V.;2019;;;;
8136;1 Voice B.V.;2019;;;;
1890;1 Voice B.V.;2019;;;;
4824;1 Voice B.V.;2019;;;;
0851;1 Voice B.V.;2019;;;;
0165;1 Voice B.V.;2019;;;;
0840;1 Voice B.V.;2019;;;;
9015;1 Voice B.V.;2019;;;;
1845;1 Voice B.V.;2019;;;;
9950;1 Voice B.V.;2019;;;;
0135;1 Voice B.V.;2019;;;;
7412;1 Voice B.V.;2019;;;;
4301;1 Voice B.V.;2019;;;;
9040;1 Voice B.V.;2019;;;;
7403;1 Voice B.V.;2019;;;;
1315;1 Voice B.V.;2019;;;;
8105;1 Voice B.V.;2019;;;;
2019;1 Voice B.V.;2019;;;;
4663;1 Voice B.V.;2019;;;;
4072;1 Voice B.V.;2019;;;;
7042;1 Voice B.V.;2019;;;;
4781;1 Voice B.V.;2019;;;;
0801;1 Voice B.V.;2019;;;;
7091;1 Voice B.V.;2019;;;;
0930;1 Voice B.V.;2019;;;;
7132;1 Voice B.V.;2019;;;;
8195;1 Voice B.V.;2019;;;;
2018;1 Voice B.V.;2019;;;;
0110;1 Voice B.V.;2019;;;;
1543;1 Voice B.V.;2019;;;;
1524;1 Voice B.V.;2019;;;;
2310;1 Voice B.V.;2019;;;;
0140;1 Voice B.V.;2019;;;;
0850;1 Voice B.V.;2019;;;;
7410;1 Voice B.V.;2019;;;;
7060;1 Voice B.V.;2019;;;;
0105;1 Voice B.V.;2019;;;;
7402;1 Voice B.V.;2019;;;;
4046;1 Voice B.V.;2019;;;;
9010;1 Voice B.V.;2019;;;;
7480;1 Voice B.V.;2019;;;;
0120;1 Voice B.V.;2019;;;;
9030;1 Voice B.V.;2019;;;;
0890;1 Voice B.V.;2019;;;;
1542;1 Voice B.V.;2019;;;;
9037;1 Voice B.V.;2019;;;;
4095;1 Voice B.V.;2019;;;;
4048;1 Voice B.V.;2019;;;;
9036;1 Voice B.V.;2019;;;;
9048;1 Voice B.V.;2019;;;;
8111;1 Voice B.V.;2019;;;;
9070;1 Voice B.V.;2019;;;;
4044;1 Voice B.V.;2019;;;;
9510;1 Voice B.V.;2019;;;;
4066;1 Voice B.V.;2019;;;;
0185;1 Voice B.V.;2019;;;;
4036;1 Voice B.V.;2019;;;;
2320;1 Voice B.V.;2019;;;;
0125;1 Voice B.V.;2019;;;;
1446;1 Voice B.V.;2019;;;;
7199;1 Voice B.V.;2019;;;;
0130;1 Voice B.V.;2019;;;;
0145;1 Voice B.V.;2019;;;;
0175;1 Voice B.V.;2019;;;;
9955;1 Voice B.V.;2019;;;;
7407;1 Voice B.V.;2019;;;;
8110;1 Voice B.V.;2019;;;;
7130;1 Voice B.V.;2019;;;;
0925;1 Voice B.V.;2019;;;;
2005;1 Voice B.V.;2019;;;;
2020;1 Voice B.V.;2019;;;;
7007;1 Voice B.V.;2019;;;;
4034;1 Voice B.V.;2019;;;;
8136;1 Voice B.V.;2019;;;;
1890;1 Voice B.V.;2019;;;;
4824;1 Voice B.V.;2019;;;;
0851;1 Voice B.V.;2019;;;;
0165;1 Voice B.V.;2019;;;;
0840;1 Voice B.V.;2019;;;;
9015;1 Voice B.V.;2019;;;;
1845;1 Voice B.V.;2019;;;;
9950;1 Voice B.V.;2019;;;;
0135;1 Voice B.V.;2019;;;;
7412;1 Voice B.V.;2019;;;;
4301;1 Voice B.V.;2019;;;;
9040;1 Voice B.V.;2019;;;;
7403;1 Voice B.V.;2019;;;;
1315;1 Voice B.V.;2019;;;;
8105;1 Voice B.V.;2019;;;;
2019;1 Voice B.V.;2019;;;;
4663;1 Voice B.V.;2019;;;;
4072;1 Voice B.V.;2019;;;;
7042;1 Voice B.V.;2019;;;;
4781;1 Voice B.V.;2019;;;;
0801;1 Voice B.V.;2019;;;;
7091;1 Voice B.V.;2019;;;;
0930;1 Voice B.V.;2019;;;;
7132;1 Voice B.V.;2019;;;;
8195;1 Voice B.V.;2019;;;;
2018;1 Voice B.V.;2019;;;;
0110;1 Voice B.V.;2019;;;;
1543;1 Voice B.V.;2019;;;;
1524;1 Voice B.V.;2019;;;;
2310;1 Voice B.V.;2019;;;;
0140;1 Voice B.V.;2019;;;;
0850;1 Voice B.V.;2019;;;;
7410;1 Voice B.V.;2019;;;;
7060;1 Voice B.V.;2019;;;;
0105;1 Voice B.V.;2019;;;;
7402;1 Voice B.V.;2019;;;;
4046;1 Voice B.V.;2019;;;;
9010;1 Voice B.V.;2019;;;;
7480;1 Voice B.V.;2019;;;;
0120;1 Voice B.V.;2019;;;;
9030;1 Voice B.V.;2019;;;;
0890;1 Voice B.V.;2019;;;;
02110;Battery Union Group B.V.;2019;;;;
02300;Battery Union Group B.V.;2019;;;;
02600;Battery Union Group B.V.;2019;;;;
02601;Battery Union Group B.V.;2019;;;;
09000;Battery Union Group B.V.;2019;;;;
11000;Battery Union Group B.V.;2019;;;;
13000;Battery Union Group B.V.;2019;;;;
13200;Battery Union Group B.V.;2019;;;;
15000;Battery Union Group B.V.;2019;;;;
16000;Battery Union Group B.V.;2019;;;;
16150;Battery Union Group B.V.;2019;;;;
17000;Battery Union Group B.V.;2019;;;;
18400;Battery Union Group B.V.;2019;;;;
18500;Battery Union Group B.V.;2019;;;;
18750;Battery Union Group B.V.;2019;;;;
18800;Battery Union Group B.V.;2019;;;;
18990;Battery Union Group B.V.;2019;;;;
20200;Battery Union Group B.V.;2019;;;;
20301;Battery Union Group B.V.;2019;;;;
20302;Battery Union Group B.V.;2019;;;;
23000;Battery Union Group B.V.;2019;;;;
23020;Battery Union Group B.V.;2019;;;;
23310;Battery Union Group B.V.;2019;;;;
23330;Battery Union Group B.V.;2019;;;;
24000;Battery Union Group B.V.;2019;;;;
30300;Battery Union Group B.V.;2019;;;;
41990;Battery Union Group B.V.;2019;;;;
42500;Battery Union Group B.V.;2019;;;;
42990;Battery Union Group B.V.;2019;;;;
43000;Battery Union Group B.V.;2019;;;;
44990;Battery Union Group B.V.;2019;;;;
45000;Battery Union Group B.V.;2019;;;;
45100;Battery Union Group B.V.;2019;;;;
45200;Battery Union Group B.V.;2019;;;;
45300;Battery Union Group B.V.;2019;;;;
45350;Battery Union Group B.V.;2019;;;;
45500;Battery Union Group B.V.;2019;;;;
45610;Battery Union Group B.V.;2019;;;;
45800;Battery Union Group B.V.;2019;;;;
45900;Battery Union Group B.V.;2019;;;;
45910;Battery Union Group B.V.;2019;;;;
45990;Battery Union Group B.V.;2019;;;;
60001;Battery Union Group B.V.;2019;;;;
81000;Battery Union Group B.V.;2019;;;;
99999;Battery Union Group B.V.;2019;;;;
1542;1 Voice B.V.;2019;;;;
9037;1 Voice B.V.;2019;;;;
4095;1 Voice B.V.;2019;;;;
4048;1 Voice B.V.;2019;;;;
9036;1 Voice B.V.;2019;;;;
9048;1 Voice B.V.;2019;;;;
8111;1 Voice B.V.;2019;;;;
9070;1 Voice B.V.;2019;;;;
4044;1 Voice B.V.;2019;;;;
9510;1 Voice B.V.;2019;;;;
4066;1 Voice B.V.;2019;;;;
0185;1 Voice B.V.;2019;;;;
4036;1 Voice B.V.;2019;;;;
2320;1 Voice B.V.;2019;;;;
0125;1 Voice B.V.;2019;;;;
1446;1 Voice B.V.;2019;;;;
7199;1 Voice B.V.;2019;;;;
0130;1 Voice B.V.;2019;;;;
0145;1 Voice B.V.;2019;;;;
0175;1 Voice B.V.;2019;;;;
9955;1 Voice B.V.;2019;;;;
7407;1 Voice B.V.;2019;;;;
8110;1 Voice B.V.;2019;;;;
7130;1 Voice B.V.;2019;;;;
0925;1 Voice B.V.;2019;;;;
2005;1 Voice B.V.;2019;;;;
2020;1 Voice B.V.;2019;;;;
7007;1 Voice B.V.;2019;;;;
4034;1 Voice B.V.;2019;;;;
8136;1 Voice B.V.;2019;;;;
1890;1 Voice B.V.;2019;;;;
4824;1 Voice B.V.;2019;;;;
0851;1 Voice B.V.;2019;;;;
0165;1 Voice B.V.;2019;;;;
0840;1 Voice B.V.;2019;;;;
9015;1 Voice B.V.;2019;;;;
1845;1 Voice B.V.;2019;;;;
9950;1 Voice B.V.;2019;;;;
0135;1 Voice B.V.;2019;;;;
7412;1 Voice B.V.;2019;;;;
4301;1 Voice B.V.;2019;;;;
9040;1 Voice B.V.;2019;;;;
7403;1 Voice B.V.;2019;;;;
1315;1 Voice B.V.;2019;;;;
8105;1 Voice B.V.;2019;;;;
2019;1 Voice B.V.;2019;;;;
4663;1 Voice B.V.;2019;;;;
4072;1 Voice B.V.;2019;;;;
7042;1 Voice B.V.;2019;;;;
4781;1 Voice B.V.;2019;;;;
0801;1 Voice B.V.;2019;;;;
7091;1 Voice B.V.;2019;;;;
0930;1 Voice B.V.;2019;;;;
7132;1 Voice B.V.;2019;;;;
8195;1 Voice B.V.;2019;;;;
2018;1 Voice B.V.;2019;;;;
0110;1 Voice B.V.;2019;;;;
1543;1 Voice B.V.;2019;;;;
1524;1 Voice B.V.;2019;;;;
2310;1 Voice B.V.;2019;;;;
0140;1 Voice B.V.;2019;;;;
0850;1 Voice B.V.;2019;;;;
7410;1 Voice B.V.;2019;;;;
7060;1 Voice B.V.;2019;;;;
0105;1 Voice B.V.;2019;;;;
7402;1 Voice B.V.;2019;;;;
4046;1 Voice B.V.;2019;;;;
9010;1 Voice B.V.;2019;;;;
7480;1 Voice B.V.;2019;;;;
0120;1 Voice B.V.;2019;;;;
9030;1 Voice B.V.;2019;;;;
0890;1 Voice B.V.;2019;;;;
02110;Battery Union Group B.V.;2019;;;;
02300;Battery Union Group B.V.;2019;;;;
02600;Battery Union Group B.V.;2019;;;;
02601;Battery Union Group B.V.;2019;;;;
09000;Battery Union Group B.V.;2019;;;;
11000;Battery Union Group B.V.;2019;;;;
13000;Battery Union Group B.V.;2019;;;;
13200;Battery Union Group B.V.;2019;;;;
15000;Battery Union Group B.V.;2019;;;;
16000;Battery Union Group B.V.;2019;;;;
16150;Battery Union Group B.V.;2019;;;;
17000;Battery Union Group B.V.;2019;;;;
18400;Battery Union Group B.V.;2019;;;;
18500;Battery Union Group B.V.;2019;;;;
18750;Battery Union Group B.V.;2019;;;;
18800;Battery Union Group B.V.;2019;;;;
18990;Battery Union Group B.V.;2019;;;;
20200;Battery Union Group B.V.;2019;;;;
20301;Battery Union Group B.V.;2019;;;;
20302;Battery Union Group B.V.;2019;;;;
23000;Battery Union Group B.V.;2019;;;;
23020;Battery Union Group B.V.;2019;;;;
23310;Battery Union Group B.V.;2019;;;;
23330;Battery Union Group B.V.;2019;;;;
24000;Battery Union Group B.V.;2019;;;;
30300;Battery Union Group B.V.;2019;;;;
41990;Battery Union Group B.V.;2019;;;;
42500;Battery Union Group B.V.;2019;;;;
42990;Battery Union Group B.V.;2019;;;;
43000;Battery Union Group B.V.;2019;;;;
44990;Battery Union Group B.V.;2019;;;;
45000;Battery Union Group B.V.;2019;;;;
45100;Battery Union Group B.V.;2019;;;;
45200;Battery Union Group B.V.;2019;;;;
45300;Battery Union Group B.V.;2019;;;;
45350;Battery Union Group B.V.;2019;;;;
45500;Battery Union Group B.V.;2019;;;;
45610;Battery Union Group B.V.;2019;;;;
45800;Battery Union Group B.V.;2019;;;;
45900;Battery Union Group B.V.;2019;;;;
45910;Battery Union Group B.V.;2019;;;;
45990;Battery Union Group B.V.;2019;;;;
60001;Battery Union Group B.V.;2019;;;;
81000;Battery Union Group B.V.;2019;;;;
99999;Battery Union Group B.V.;2019;;;;
1542;1 Voice B.V.;2019;;;;
9037;1 Voice B.V.;2019;;;;
4095;1 Voice B.V.;2019;;;;
4048;1 Voice B.V.;2019;;;;
9036;1 Voice B.V.;2019;;;;
9048;1 Voice B.V.;2019;;;;
8111;1 Voice B.V.;2019;;;;
9070;1 Voice B.V.;2019;;;;
4044;1 Voice B.V.;2019;;;;
9510;1 Voice B.V.;2019;;;;
4066;1 Voice B.V.;2019;;;;
0185;1 Voice B.V.;2019;;;;
4036;1 Voice B.V.;2019;;;;
2320;1 Voice B.V.;2019;;;;
0125;1 Voice B.V.;2019;;;;
1446;1 Voice B.V.;2019;;;;
7199;1 Voice B.V.;2019;;;;
0130;1 Voice B.V.;2019;;;;
0145;1 Voice B.V.;2019;;;;
0175;1 Voice B.V.;2019;;;;
9955;1 Voice B.V.;2019;;;;
7407;1 Voice B.V.;2019;;;;
8110;1 Voice B.V.;2019;;;;
7130;1 Voice B.V.;2019;;;;
0925;1 Voice B.V.;2019;;;;
2005;1 Voice B.V.;2019;;;;
2020;1 Voice B.V.;2019;;;;
7007;1 Voice B.V.;2019;;;;
4034;1 Voice B.V.;2019;;;;
8136;1 Voice B.V.;2019;;;;
1890;1 Voice B.V.;2019;;;;
4824;1 Voice B.V.;2019;;;;
0851;1 Voice B.V.;2019;;;;
0165;1 Voice B.V.;2019;;;;
0840;1 Voice B.V.;2019;;;;
9015;1 Voice B.V.;2019;;;;
1845;1 Voice B.V.;2019;;;;
9950;1 Voice B.V.;2019;;;;
0135;1 Voice B.V.;2019;;;;
7412;1 Voice B.V.;2019;;;;
4301;1 Voice B.V.;2019;;;;
9040;1 Voice B.V.;2019;;;;
7403;1 Voice B.V.;2019;;;;
1315;1 Voice B.V.;2019;;;;
8105;1 Voice B.V.;2019;;;;
2019;1 Voice B.V.;2019;;;;
4663;1 Voice B.V.;2019;;;;
4072;1 Voice B.V.;2019;;;;
7042;1 Voice B.V.;2019;;;;
4781;1 Voice B.V.;2019;;;;
0801;1 Voice B.V.;2019;;;;
7091;1 Voice B.V.;2019;;;;
0930;1 Voice B.V.;2019;;;;
7132;1 Voice B.V.;2019;;;;
8195;1 Voice B.V.;2019;;;;
2018;1 Voice B.V.;2019;;;;
0110;1 Voice B.V.;2019;;;;
1543;1 Voice B.V.;2019;;;;
1524;1 Voice B.V.;2019;;;;
2310;1 Voice B.V.;2019;;;;
0140;1 Voice B.V.;2019;;;;
0850;1 Voice B.V.;2019;;;;
7410;1 Voice B.V.;2019;;;;
7060;1 Voice B.V.;2019;;;;
0105;1 Voice B.V.;2019;;;;
7402;1 Voice B.V.;2019;;;;
4046;1 Voice B.V.;2019;;;;
9010;1 Voice B.V.;2019;;;;
7480;1 Voice B.V.;2019;;;;
0120;1 Voice B.V.;2019;;;;
9030;1 Voice B.V.;2019;;;;
0890;1 Voice B.V.;2019;;;;
9300;Jean_Arnaud_Wijncom_2019;CoSGbVA;;;;
2200;Jean_Arnaud_Wijncom_2019;CoSGbVA;;;;
0495;Jean_Arnaud_Wijncom_2019;CoSGbVA;;;;
0200;Jean_Arnaud_Wijncom_2019;CoSGbVA;;;;
4410;Jean_Arnaud_Wijncom_2019;CoSGbVA;;;;
1771;Jean_Arnaud_Wijncom_2019;CoSGbVA;;;;
1670;Jean_Arnaud_Wijncom_2019;CoSGbVA;;;;
0120;Jean_Arnaud_Wijncom_2019;CoSGbVA;;;;
0300;Jean_Arnaud_Wijncom_2019;CoSGbVA;;;;
0820;Jean_Arnaud_Wijncom_2019;CoSGbVA;;;;
5190;Jean_Arnaud_Wijncom_2019;CoSGbVA;;;;
9265;Jean_Arnaud_Wijncom_2019;CoSGbVA;;;;
5110;Jean_Arnaud_Wijncom_2019;CoSGbVA;;;;
4091;Jean_Arnaud_Wijncom_2019;CoSGbVA;;;;
5200;Jean_Arnaud_Wijncom_2019;CoSGbVA;;;;
0930;Jean_Arnaud_Wijncom_2019;CoSGbVA;;;;
1800;Jean_Arnaud_Wijncom_2019;CoSGbVA;;;;
1741;Jean_Arnaud_Wijncom_2019;CoSGbVA;;;;
9250;Jean_Arnaud_Wijncom_2019;CoSGbVA;;;;
7113;Jean_Arnaud_Wijncom_2019;CoSGbVA;;;;
9270;Jean_Arnaud_Wijncom_2019;CoSGbVA;;;;
9130;Jean_Arnaud_Wijncom_2019;CoSGbVA;;;;
5270;Jean_Arnaud_Wijncom_2019;CoSGbVA;;;;
1781;Jean_Arnaud_Wijncom_2019;CoSGbVA;;;;
5100;Jean_Arnaud_Wijncom_2019;CoSGbVA;;;;
9260;Jean_Arnaud_Wijncom_2019;CoSGbVA;;;;
0990;Jean_Arnaud_Wijncom_2019;CoSGbVA;;;;
2400;Jean_Arnaud_Wijncom_2019;CoSGbVA;;;;
1105;Jean_Arnaud_Wijncom_2019;CoSGbVA;;;;
9132;Jean_Arnaud_Wijncom_2019;CoSGbVA;;;;
0490;Jean_Arnaud_Wijncom_2019;CoSGbVA;;;;
0130;Jean_Arnaud_Wijncom_2019;CoSGbVA;;;;
0860;Jean_Arnaud_Wijncom_2019;CoSGbVA;;;;
1745;Jean_Arnaud_Wijncom_2019;CoSGbVA;;;;
0770;Jean_Arnaud_Wijncom_2019;CoSGbVA;;;;
1746;Jean_Arnaud_Wijncom_2019;CoSGbVA;;;;
1295;Jean_Arnaud_Wijncom_2019;CoSGbVA;;;;
2310;Jean_Arnaud_Wijncom_2019;CoSGbVA;;;;
0110;Jean_Arnaud_Wijncom_2019;CoSGbVA;;;;
1740;Jean_Arnaud_Wijncom_2019;CoSGbVA;;;;
0310;Jean_Arnaud_Wijncom_2019;CoSGbVA;;;;
0190;Jean_Arnaud_Wijncom_2019;CoSGbVA;;;;
9010;Jean_Arnaud_Wijncom_2019;CoSGbVA;;;;
9275;Jean_Arnaud_Wijncom_2019;CoSGbVA;;;;
0940;Jean_Arnaud_Wijncom_2019;CoSGbVA;;;;
4205;Jean_Arnaud_Wijncom_2019;CoSGbVA;;;;
2160;Jean_Arnaud_Wijncom_2019;CoSGbVA;;;;
7103;Jean_Arnaud_Wijncom_2019;CoSGbVA;;;;
8110;Jean_Arnaud_Wijncom_2019;CoSGbVA;;;;
0818;Jean_Arnaud_Wijncom_2019;CoSGbVA;;;;
4026;Jean_Arnaud_Wijncom_2019;CoSGbVA;;;;
0140;Jean_Arnaud_Wijncom_2019;CoSGbVA;;;;
7109;Jean_Arnaud_Wijncom_2019;CoSGbVA;;;;
5300;Jean_Arnaud_Wijncom_2019;CoSGbVA;;;;
